{
  "rows1": [
    {
      "streetaddress": "1752 Wilson Ave",
      "additionaldirections": "1752 Wilson Ave",
      "majorcrossstreet": "Arcadia",
      "city": "Arcadia",
      "zipcode": 1008,
      "phone1": 3216549871,
      "phone2": 3216549871,
      "email": "arc@mailinator.com"
    }
  ]
}